Forecasts for Ontario Energy Consumption
…
# A fable: 24 x 5 [1M]
# Key:     .model [1]
   .model                                Month      monthly_demand  .mean   Temp
   <chr>                                 <mth>              <dist>  <dbl>  <dbl>
 1 ARIMA(monthly_demand ~ 1 + Temp +… 2023 Apr   N(1e+07, 1.6e+11) 1.02e7  9.10 
 2 ARIMA(monthly_demand ~ 1 + Temp +… 2023 May   N(1e+07, 1.9e+11) 1.04e7 14.1  
 3 ARIMA(monthly_demand ~ 1 + Temp +… 2023 Jun N(1.1e+07, 2.1e+11) 1.10e7 19.0  
 4 ARIMA(monthly_demand ~ 1 + Temp +… 2023 Jul N(1.2e+07, 2.3e+11) 1.24e7 22.8  
 5 ARIMA(monthly_demand ~ 1 + Temp +… 2023 Aug N(1.2e+07, 2.3e+11) 1.23e7 22.1  
 6 ARIMA(monthly_demand ~ 1 + Temp +… 2023 Sep N(1.1e+07, 2.4e+11) 1.07e7 18.1  
 7 ARIMA(monthly_demand ~ 1 + Temp +… 2023 Oct N(1.1e+07, 2.4e+11) 1.05e7 12.1  
 8 ARIMA(monthly_demand ~ 1 + Temp +… 2023 Nov N(1.1e+07, 2.5e+11) 1.10e7  6.05 
 9 ARIMA(monthly_demand ~ 1 + Temp +… 2023 Dec N(1.2e+07, 2.5e+11) 1.21e7  0.792
10 ARIMA(monthly_demand ~ 1 + Temp +… 2024 Jan N(1.3e+07, 2.5e+11) 1.27e7 -3.01 
# ℹ 14 more rows
…
